{"playlists":{"href":"https://api.spotify.com/v1/search?query=asdf&type=playlist&market=US&offset=5&limit=1","items":[{"collaborative":false,"description":"","external_urls":{"spotify":"https://open.spotify.com/playlist/7bLq2csEsaoS5gRJsaplsQ"},"href":"https://api.spotify.com/v1/playlists/7bLq2csEsaoS5gRJsaplsQ","id":"7bLq2csEsaoS5gRJsaplsQ","images":[{"height":640,"url":"https://mosaic.scdn.co/640/ab67616d0000b273346d77e155d854735410ed18ab67616d0000b27357926775a727f73240d87cc2ab67616d0000b273c12f4b7567671621abce2aaaab67616d0000b273f46b9d202509a8f7384b90de","width":640},{"height":300,"url":"https://mosaic.scdn.co/300/ab67616d0000b273346d77e155d854735410ed18ab67616d0000b27357926775a727f73240d87cc2ab67616d0000b273c12f4b7567671621abce2aaaab67616d0000b273f46b9d202509a8f7384b90de","width":300},{"height":60,"url":"https://mosaic.scdn.co/60/ab67616d0000b273346d77e155d854735410ed18ab67616d0000b27357926775a727f73240d87cc2ab67616d0000b273c12f4b7567671621abce2aaaab67616d0000b273f46b9d202509a8f7384b90de","width":60}],"name":"asdf2133","owner":{"display_name":"calvin2nguyen","external_urls":{"spotify":"https://open.spotify.com/user/calvin2nguyen"},"href":"https://api.spotify.com/v1/users/calvin2nguyen","id":"calvin2nguyen","type":"user","uri":"spotify:user:calvin2nguyen"},"primary_color":null,"public":null,"snapshot_id":"NTI3LGEyZWI4OTQ0MDE2MDU5YmFjOTZiZTE0NWRhYTgyMmM5YzI1MTE2MjQ=","tracks":{"href":"https://api.spotify.com/v1/playlists/7bLq2csEsaoS5gRJsaplsQ/tracks","total":218},"type":"playlist","uri":"spotify:playlist:7bLq2csEsaoS5gRJsaplsQ"}],"limit":1,"next":"https://api.spotify.com/v1/search?query=asdf&type=playlist&market=US&offset=6&limit=1","offset":5,"previous":"https://api.spotify.com/v1/search?query=asdf&type=playlist&market=US&offset=4&limit=1","total":8092}}